<?xml version="1.0" encoding="UTF-8" standalone="no"?>
<!-- Created with Inkscape (http://www.inkscape.org/) -->

<svg
   xmlns:dc="http://purl.org/dc/elements/1.1/"
   xmlns:cc="http://creativecommons.org/ns#"
   xmlns:rdf="http://www.w3.org/1999/02/22-rdf-syntax-ns#"
   xmlns:svg="http://www.w3.org/2000/svg"
   xmlns="http://www.w3.org/2000/svg"
   xmlns:sodipodi="http://sodipodi.sourceforge.net/DTD/sodipodi-0.dtd"
   xmlns:inkscape="http://www.inkscape.org/namespaces/inkscape"
   width="0.78518707in"
   height="0.78488189in"
   viewBox="0 0 19.943751 19.936"
   version="1.1"
   id="svg5195"
   sodipodi:docname="alph-logo-2.svg"
   inkscape:version="0.92.1 r15371">
  <defs
     id="defs5189" />
  <sodipodi:namedview
     id="base"
     pagecolor="#ffffff"
     bordercolor="#666666"
     borderopacity="1.0"
     inkscape:pageopacity="0.0"
     inkscape:pageshadow="2"
     inkscape:zoom="2.2290146"
     inkscape:cx="-29.877096"
     inkscape:cy="23.261436"
     inkscape:document-units="mm"
     inkscape:current-layer="layer1"
     showgrid="false"
     units="in"
     fit-margin-top="0"
     fit-margin-left="0"
     fit-margin-right="0"
     fit-margin-bottom="0"
     inkscape:window-width="1366"
     inkscape:window-height="752"
     inkscape:window-x="0"
     inkscape:window-y="16"
     inkscape:window-maximized="0" />
  <metadata
     id="metadata5192">
    <rdf:RDF>
      <cc:Work
         rdf:about="">
        <dc:format>image/svg+xml</dc:format>
        <dc:type
           rdf:resource="http://purl.org/dc/dcmitype/StillImage" />
        <dc:title></dc:title>
      </cc:Work>
    </rdf:RDF>
  </metadata>
  <g
     inkscape:label="Layer 1"
     inkscape:groupmode="layer"
     id="layer1"
     transform="translate(-38.163903,-135.0519)">
    <path
       inkscape:connector-curvature="0"
       id="path5106"
       d="m 47.917187,135.1019 a 9.921875,9.921875 0 0 0 -3.271118,0.63149 l 1.453141,2.51716 z m 2.861841,0.36174 -3.144511,5.44618 3.661275,6.3407 h 6.49676 a 9.921875,9.921875 0 0 0 0.265102,-2.23449 9.921875,9.921875 0 0 0 -7.278626,-9.55239 z m -8.471835,1.53789 a 9.921875,9.921875 0 0 0 -4.09329,8.0145 9.921875,9.921875 0 0 0 1.228866,4.76198 l 5.121134,-8.86819 z m 3.792017,6.56756 -2.125452,3.68143 h 4.250904 z m -6.57996,6.34173 a 9.921875,9.921875 0 0 0 8.616528,5.02708 9.921875,9.921875 0 0 0 4.026111,-0.86713 l -2.401404,-4.15995 h -8.089428 z m 13.312365,0 1.597319,2.76675 a 9.921875,9.921875 0 0 0 2.329057,-2.76675 z"
       style="opacity:1;fill:#000000;fill-opacity:1;fill-rule:nonzero;stroke:none;stroke-width:0.1;stroke-linecap:round;stroke-linejoin:round;stroke-miterlimit:4;stroke-dasharray:none;stroke-opacity:1" />
  </g>
</svg>
